\relax 
\catcode`"\active
\select@language{portuguese}
\@writefile{toc}{\select@language{portuguese}}
\@writefile{lof}{\select@language{portuguese}}
\@writefile{lot}{\select@language{portuguese}}
\@writefile{toc}{\contentsline {chapter}{\numberline {1}Introdu\IeC {\c c}\IeC {\~a}o}{3}}
\@writefile{lof}{\addvspace {10\p@ }}
\@writefile{lot}{\addvspace {10\p@ }}
\@writefile{toc}{\contentsline {chapter}{\numberline {2}Arquitetura}{4}}
\@writefile{lof}{\addvspace {10\p@ }}
\@writefile{lot}{\addvspace {10\p@ }}
\@writefile{toc}{\contentsline {section}{\numberline {2.1}Diagrama de Navega\IeC {\c c}\IeC {\~a}o}{5}}
\@writefile{toc}{\contentsline {chapter}{\numberline {3}Implementa\IeC {\c c}\IeC {\~a}o}{6}}
\@writefile{lof}{\addvspace {10\p@ }}
\@writefile{lot}{\addvspace {10\p@ }}
\@writefile{toc}{\contentsline {section}{\numberline {3.1}Status}{6}}
\@writefile{toc}{\contentsline {section}{\numberline {3.2}Timeline}{7}}
\@writefile{toc}{\contentsline {section}{\numberline {3.3}UserInfo}{8}}
\@writefile{toc}{\contentsline {section}{\numberline {3.4}Preferences}{8}}
\@writefile{toc}{\contentsline {section}{\numberline {3.5}Widget}{8}}
\@writefile{toc}{\contentsline {chapter}{\numberline {4}Conclus\IeC {\~a}o}{9}}
\@writefile{lof}{\addvspace {10\p@ }}
\@writefile{lot}{\addvspace {10\p@ }}
\bibcite{Identifier}{Marker}
