\select@language {portuguese}
\contentsline {chapter}{\numberline {1}Introdu\IeC {\c c}\IeC {\~a}o}{3}
\contentsline {chapter}{\numberline {2}Arquitetura}{4}
\contentsline {section}{\numberline {2.1}Diagrama de Navega\IeC {\c c}\IeC {\~a}o}{5}
\contentsline {chapter}{\numberline {3}Implementa\IeC {\c c}\IeC {\~a}o}{6}
\contentsline {section}{\numberline {3.1}Status}{6}
\contentsline {section}{\numberline {3.2}Timeline}{7}
\contentsline {section}{\numberline {3.3}UserInfo}{8}
\contentsline {section}{\numberline {3.4}Preferences}{8}
\contentsline {section}{\numberline {3.5}Widget}{8}
\contentsline {chapter}{\numberline {4}Conclus\IeC {\~a}o}{9}
